{
  "images" : [
    {
      "idiom" : "iphone",
      "scale" : "1x",
      "filename" : "Tomar fotos_Iphone 4_Banda superior.png"
    },
    {
      "idiom" : "iphone",
      "scale" : "2x",
      "filename" : "Tomar fotos_Iphone 5_Banda superior.png"
    },
    {
      "idiom" : "iphone",
      "scale" : "3x",
      "filename" : "Tomar fotos_Iphone 6 Plus_Banda superior.png"
    }
  ],
  "info" : {
    "version" : 1,
    "author" : "xcode"
  }
}